日本でのデータサイエンス教育の課題にどう向き合うか
…
Package, Module

Hypothesis Testing to Machine Learning

Productivity Tool: Git-GitHub, R Studio

AI も、データサイエンスのトレーニングも大学の中から大学の外に移っている

library(tidyverse)
library(dslabs)
list_dslabs <- data(package='dslabs')
list_dslabs$results %>% as_tibble() %>% select(3:4)

## # A tibble: 29 × 2
##    Item              Title                                                      
##    <chr>             <chr>                                                      
##  1 admissions        Gender bias among graduate school admissions to UC Berkele…
##  2 brca              Breast Cancer Wisconsin Diagnostic Dataset from UCI Machin…
##  3 brexit_polls      Brexit Poll Data                                           
##  4 death_prob        2015 US Period Life Table                                  
##  5 divorce_margarine Divorce rate and margarine consumption data                
##  6 gapminder         Gapminder Data                                             
##  7 greenhouse_gases  Greenhouse gas concentrations over 2000 years              
##  8 heights           Self-Reported Heights                                      
##  9 historic_co2      Atmospheric carbon dioxide concentration over 800,000 years
## 10 mnist_27          Useful example for illustrating machine learning algorithm…
## # … with 19 more rows
…
